\boolfalse {citerequest}\boolfalse {citetracker}\boolfalse {pagetracker}\boolfalse {backtracker}\relax 
\babel@toc {french}{}
\contentsline {chapter}{\numberline {1}Introduction}{1}{chapter.1}%
\contentsline {chapter}{\numberline {2}État de l'art}{2}{chapter.2}%
\contentsline {chapter}{\numberline {3}Contributions}{3}{chapter.3}%
\contentsline {chapter}{\numberline {4}Rédaction en \LaTeX }{4}{chapter.4}%
\contentsline {section}{\numberline {4.1}Découpage d'un chapitre}{4}{section.4.1}%
\contentsline {section}{\numberline {4.2}Listes}{4}{section.4.2}%
\contentsline {subsection}{\numberline {4.2.1}Listes à puces}{4}{subsection.4.2.1}%
\contentsline {subsection}{\numberline {4.2.2}Listes numérotées}{5}{subsection.4.2.2}%
\contentsline {subsection}{\numberline {4.2.3}Listes descriptives}{5}{subsection.4.2.3}%
\contentsline {subsection}{\numberline {4.2.4}Listes imbriquées}{5}{subsection.4.2.4}%
\contentsline {section}{\numberline {4.3}Mathématiques}{6}{section.4.3}%
\contentsline {section}{\numberline {4.4}Figures}{6}{section.4.4}%
\contentsline {subsection}{\numberline {4.4.1}Inclusion d'images}{6}{subsection.4.4.1}%
\contentsline {subsection}{\numberline {4.4.2}Dessin}{7}{subsection.4.4.2}%
\contentsline {section}{\numberline {4.5}Tables}{7}{section.4.5}%
\contentsline {section}{\numberline {4.6}Théorèmes}{7}{section.4.6}%
\contentsline {section}{\numberline {4.7}Algorithmes et code}{8}{section.4.7}%
\contentsline {subsection}{\numberline {4.7.1}Algorithmes en pseudo-code}{8}{subsection.4.7.1}%
\contentsline {subsection}{\numberline {4.7.2}Listings : extraits de code source}{8}{subsection.4.7.2}%
\contentsline {chapter}{\numberline {5}Conclusion}{10}{chapter.5}%
\contentsline {chapter}{\numberline {A}Cahier des charges}{12}{appendix.A}%
\contentsline {chapter}{\numberline {B}Preuves détaillées }{13}{appendix.B}%
